{
"Profiles": [
{
  "Use Non-ASCII Font" : false,
  "Tags" : [

  ],
  "Ansi 12 Color" : {
    "Red Component" : 0.38039215686299999,
    "Color Space" : "Calibrated",
    "Blue Component" : 0.93725490196100003,
    "Alpha Component" : 1,
    "Green Component" : 0.68627450980399995
  },
  "Ansi 7 Color" : {
    "Red Component" : 0.98039215686299996,
    "Color Space" : "Calibrated",
    "Blue Component" : 0.98039215686299996,
    "Alpha Component" : 1,
    "Green Component" : 0.98039215686299996
  },
  "Ansi 8 Color" : {
    "Red Component" : 0.309803921569,
    "Color Space" : "Calibrated",
    "Blue Component" : 0.36862745097999999,
    "Alpha Component" : 1,
    "Green Component" : 0.32156862745100001
  },
  "Bold Color" : {
    "Red Component" : 0.67058825492858887,
    "Color Space" : "Calibrated",
    "Blue Component" : 0.74901962280273438,
    "Alpha Component" : 1,
    "Green Component" : 0.69803923368453979
  },
  "Ansi 9 Color" : {
    "Red Component" : 0.87843137254899994,
    "Color Space" : "Calibrated",
    "Blue Component" : 0.458823529412,
    "Alpha Component" : 1,
    "Green Component" : 0.42352941176499997
  },
  "Ansi 4 Color" : {
    "Red Component" : 0.0039215686274500002,
    "Color Space" : "Calibrated",
    "Blue Component" : 0.73725490196099996,
    "Alpha Component" : 1,
    "Green Component" : 0.51764705882399997
  },
  "Ansi 5 Color" : {
    "Red Component" : 0.65098039215699999,
    "Color Space" : "Calibrated",
    "Blue Component" : 0.64313725490200002,
    "Alpha Component" : 1,
    "Green Component" : 0.149019607843
  },
  "Rows" : 25,
  "Default Bookmark" : "No",
  "Cursor Guide Color" : {
    "Red Component" : 0.94117647058800002,
    "Color Space" : "Calibrated",
    "Blue Component" : 0.94117647058800002,
    "Alpha Component" : 0.25,
    "Green Component" : 0.94117647058800002
  },
  "Non-ASCII Anti Aliased" : true,
  "Use Bright Bold" : true,
  "Ansi 10 Color" : {
    "Red Component" : 0.59607843137299998,
    "Color Space" : "Calibrated",
    "Blue Component" : 0.47450980392199998,
    "Alpha Component" : 1,
    "Green Component" : 0.76470588235299997
  },
  "Ambiguous Double Width" : false,
  "Jobs to Ignore" : [
    "rlogin",
    "ssh",
    "slogin",
    "telnet"
  ],
  "Ansi 15 Color" : {
    "Red Component" : 1,
    "Color Space" : "Calibrated",
    "Blue Component" : 1,
    "Alpha Component" : 1,
    "Green Component" : 1
  },
  "Foreground Color" : {
    "Red Component" : 0.21960784313699999,
    "Color Space" : "Calibrated",
    "Blue Component" : 0.25882352941199999,
    "Alpha Component" : 1,
    "Green Component" : 0.22745098039200001
  },
  "Working Directory" : "\/Users\/eliseshaffer",
  "Blinking Cursor" : false,
  "Disable Window Resizing" : true,
  "Sync Title" : false,
  "Prompt Before Closing 2" : false,
  "BM Growl" : true,
  "Command" : "",
  "Description" : "Default",
  "Mouse Reporting" : true,
  "Screen" : -1,
  "Selection Color" : {
    "Red Component" : 0.74901960784300003,
    "Color Space" : "Calibrated",
    "Blue Component" : 1,
    "Alpha Component" : 1,
    "Green Component" : 0.80784313725500001
  },
  "Columns" : 80,
  "Idle Code" : 0,
  "Ansi 13 Color" : {
    "Red Component" : 0.77647058823500004,
    "Color Space" : "Calibrated",
    "Blue Component" : 0.86666666666699999,
    "Alpha Component" : 1,
    "Green Component" : 0.47058823529400001
  },
  "Brighten Bold Text" : false,
  "Custom Command" : "No",
  "ASCII Anti Aliased" : true,
  "Non Ascii Font" : "Monaco 12",
  "Vertical Spacing" : 1,
  "Use Bold Font" : true,
  "Option Key Sends" : 0,
  "Selected Text Color" : {
    "Red Component" : 0.21960784313699999,
    "Color Space" : "Calibrated",
    "Blue Component" : 0.25882352941199999,
    "Alpha Component" : 1,
    "Green Component" : 0.22745098039200001
  },
  "Background Color" : {
    "Red Component" : 0.98039215686299996,
    "Color Space" : "Calibrated",
    "Blue Component" : 0.98039215686299996,
    "Alpha Component" : 1,
    "Green Component" : 0.98039215686299996
  },
  "Character Encoding" : 4,
  "Ansi 11 Color" : {
    "Red Component" : 0.89803921568599998,
    "Color Space" : "Calibrated",
    "Blue Component" : 0.48235294117600003,
    "Alpha Component" : 1,
    "Green Component" : 0.75294117647100001
  },
  "Use Italic Font" : true,
  "Unlimited Scrollback" : false,
  "Keyboard Map" : {
    "0xf700-0x260000" : {
      "Action" : 10,
      "Text" : "[1;6A"
    },
    "0x37-0x40000" : {
      "Action" : 11,
      "Text" : "0x1f"
    },
    "0x32-0x40000" : {
      "Action" : 11,
      "Text" : "0x00"
    },
    "0xf709-0x20000" : {
      "Action" : 10,
      "Text" : "[17;2~"
    },
    "0xf70c-0x20000" : {
      "Action" : 10,
      "Text" : "[20;2~"
    },
    "0xf729-0x20000" : {
      "Action" : 10,
      "Text" : "[1;2H"
    },
    "0xf72b-0x40000" : {
      "Action" : 10,
      "Text" : "[1;5F"
    },
    "0xf705-0x20000" : {
      "Action" : 10,
      "Text" : "[1;2Q"
    },
    "0xf703-0x260000" : {
      "Action" : 10,
      "Text" : "[1;6C"
    },
    "0xf700-0x220000" : {
      "Action" : 10,
      "Text" : "[1;2A"
    },
    "0xf701-0x280000" : {
      "Action" : 11,
      "Text" : "0x1b 0x1b 0x5b 0x42"
    },
    "0x38-0x40000" : {
      "Action" : 11,
      "Text" : "0x7f"
    },
    "0x33-0x40000" : {
      "Action" : 11,
      "Text" : "0x1b"
    },
    "0xf703-0x220000" : {
      "Action" : 10,
      "Text" : "[1;2C"
    },
    "0xf701-0x240000" : {
      "Action" : 10,
      "Text" : "[1;5B"
    },
    "0xf70d-0x20000" : {
      "Action" : 10,
      "Text" : "[21;2~"
    },
    "0xf702-0x260000" : {
      "Action" : 10,
      "Text" : "[1;6D"
    },
    "0xf729-0x40000" : {
      "Action" : 10,
      "Text" : "[1;5H"
    },
    "0xf706-0x20000" : {
      "Action" : 10,
      "Text" : "[1;2R"
    },
    "0x34-0x40000" : {
      "Action" : 11,
      "Text" : "0x1c"
    },
    "0xf700-0x280000" : {
      "Action" : 11,
      "Text" : "0x1b 0x1b 0x5b 0x41"
    },
    "0x2d-0x40000" : {
      "Action" : 11,
      "Text" : "0x1f"
    },
    "0xf70e-0x20000" : {
      "Action" : 10,
      "Text" : "[23;2~"
    },
    "0xf702-0x220000" : {
      "Action" : 10,
      "Text" : "[1;2D"
    },
    "0xf703-0x280000" : {
      "Action" : 11,
      "Text" : "0x1b 0x1b 0x5b 0x43"
    },
    "0xf700-0x240000" : {
      "Action" : 10,
      "Text" : "[1;5A"
    },
    "0xf707-0x20000" : {
      "Action" : 10,
      "Text" : "[1;2S"
    },
    "0xf70a-0x20000" : {
      "Action" : 10,
      "Text" : "[18;2~"
    },
    "0x35-0x40000" : {
      "Action" : 11,
      "Text" : "0x1d"
    },
    "0xf70f-0x20000" : {
      "Action" : 10,
      "Text" : "[24;2~"
    },
    "0xf703-0x240000" : {
      "Action" : 10,
      "Text" : "[1;5C"
    },
    "0xf701-0x260000" : {
      "Action" : 10,
      "Text" : "[1;6B"
    },
    "0xf702-0x280000" : {
      "Action" : 11,
      "Text" : "0x1b 0x1b 0x5b 0x44"
    },
    "0xf72b-0x20000" : {
      "Action" : 10,
      "Text" : "[1;2F"
    },
    "0x36-0x40000" : {
      "Action" : 11,
      "Text" : "0x1e"
    },
    "0xf708-0x20000" : {
      "Action" : 10,
      "Text" : "[15;2~"
    },
    "0xf701-0x220000" : {
      "Action" : 10,
      "Text" : "[1;2B"
    },
    "0xf70b-0x20000" : {
      "Action" : 10,
      "Text" : "[19;2~"
    },
    "0xf702-0x240000" : {
      "Action" : 10,
      "Text" : "[1;5D"
    },
    "0xf704-0x20000" : {
      "Action" : 10,
      "Text" : "[1;2P"
    }
  },
  "Window Type" : 0,
  "Background Image Location" : "",
  "Blur" : false,
  "Badge Color" : {
    "Red Component" : 1,
    "Color Space" : "Calibrated",
    "Blue Component" : 0,
    "Alpha Component" : 0.5,
    "Green Component" : 0
  },
  "Scrollback Lines" : 0,
  "Send Code When Idle" : false,
  "Close Sessions On End" : true,
  "Terminal Type" : "iterm2",
  "Visual Bell" : true,
  "Flashing Bell" : false,
  "Silence Bell" : true,
  "Ansi 14 Color" : {
    "Red Component" : 0.337254901961,
    "Color Space" : "Calibrated",
    "Blue Component" : 0.76078431372499999,
    "Alpha Component" : 1,
    "Green Component" : 0.71372549019599996
  },
  "ASCII Ligatures" : true,
  "Name" : "Default",
  "Cursor Text Color" : {
    "Red Component" : 0.21960784313699999,
    "Color Space" : "Calibrated",
    "Blue Component" : 0.25882352941199999,
    "Alpha Component" : 1,
    "Green Component" : 0.22745098039200001
  },
  "Shortcut" : "",
  "Cursor Color" : {
    "Red Component" : 0.74901960784300003,
    "Color Space" : "Calibrated",
    "Blue Component" : 1,
    "Alpha Component" : 1,
    "Green Component" : 0.80784313725500001
  },
  "Ansi 0 Color" : {
    "Red Component" : 0.21960784313699999,
    "Color Space" : "Calibrated",
    "Blue Component" : 0.25882352941199999,
    "Alpha Component" : 1,
    "Green Component" : 0.22745098039200001
  },
  "Transparency" : 0,
  "Horizontal Spacing" : 1,
  "Custom Directory" : "No",
  "Link Color" : {
    "Red Component" : 0.0039215686274500002,
    "Color Space" : "Calibrated",
    "Blue Component" : 0.73725490196099996,
    "Alpha Component" : 1,
    "Green Component" : 0.51764705882399997
  },
  "Guid" : "F91F866F-7D95-4383-8384-61C5FF84FBED",
  "Ansi 6 Color" : {
    "Red Component" : 0.035294117647099998,
    "Color Space" : "Calibrated",
    "Blue Component" : 0.701960784314,
    "Alpha Component" : 1,
    "Green Component" : 0.59215686274500001
  },
  "Ansi 1 Color" : {
    "Red Component" : 0.89411764705899999,
    "Color Space" : "Calibrated",
    "Blue Component" : 0.28627450980399999,
    "Alpha Component" : 1,
    "Green Component" : 0.337254901961
  },
  "Normal Font" : "FiraCode-Regular 12",
  "Ansi 2 Color" : {
    "Red Component" : 0.31372549019599999,
    "Color Space" : "Calibrated",
    "Blue Component" : 0.309803921569,
    "Alpha Component" : 1,
    "Green Component" : 0.63137254901999995
  },
  "Ansi 3 Color" : {
    "Red Component" : 0.756862745098,
    "Color Space" : "Calibrated",
    "Blue Component" : 0.0039215686274500002,
    "Alpha Component" : 1,
    "Green Component" : 0.51764705882399997
  },
  "Right Option Key Sends" : 0
},
{
  "Use Non-ASCII Font" : true,
  "Tags" : [

  ],
  "Ansi 12 Color" : {
    "Green Component" : 0.61176472902297974,
    "Red Component" : 0.30196079611778259,
    "Blue Component" : 0.93333333730697632
  },
  "Ansi 7 Color" : {
    "Green Component" : 0.63529411759999999,
    "Red Component" : 0.60784313729999995,
    "Blue Component" : 0.69803921570000005
  },
  "Ansi 8 Color" : {
    "Green Component" : 0.12941177189350128,
    "Red Component" : 0.11764705926179886,
    "Blue Component" : 0.15294118225574493
  },
  "Bold Color" : {
    "Green Component" : 0.90859544147195581,
    "Red Component" : 0.86938229080510965,
    "Blue Component" : 1
  },
  "Ansi 9 Color" : {
    "Green Component" : 0.32549020648002625,
    "Red Component" : 0.85098040103912354,
    "Blue Component" : 0.37647059559822083
  },
  "Transparency" : 0,
  "Ansi 5 Color" : {
    "Green Component" : 0.3490196168422699,
    "Red Component" : 0.72549021244049072,
    "Blue Component" : 0.84705883264541626
  },
  "Rows" : 25,
  "Default Bookmark" : "No",
  "Cursor Guide Color" : {
    "Red Component" : 0.70213186740875244,
    "Color Space" : "sRGB",
    "Blue Component" : 1,
    "Alpha Component" : 0.25,
    "Green Component" : 0.9268307089805603
  },
  "Non-ASCII Anti Aliased" : true,
  "Use Bright Bold" : true,
  "Show Mark Indicators" : false,
  "Ansi 10 Color" : {
    "Green Component" : 0.73333334922790527,
    "Red Component" : 0.52549022436141968,
    "Blue Component" : 0.38431373238563538
  },
  "Icon" : 0,
  "Ambiguous Double Width" : false,
  "Jobs to Ignore" : [
    "rlogin",
    "ssh",
    "slogin",
    "telnet"
  ],
  "Show Status Bar" : false,
  "Ansi 15 Color" : {
    "Green Component" : 0.63529413938522339,
    "Red Component" : 0.60784316062927246,
    "Blue Component" : 0.69803923368453979
  },
  "Foreground Color" : {
    "Green Component" : 0.63529413938522339,
    "Red Component" : 0.60784316062927246,
    "Blue Component" : 0.69803923368453979
  },
  "Bound Hosts" : [

  ],
  "Working Directory" : "\/Users\/ahmadawais",
  "Blinking Cursor" : false,
  "Disable Window Resizing" : true,
  "Sync Title" : false,
  "Prompt Before Closing 2" : false,
  "BM Growl" : true,
  "Command" : "",
  "Description" : "Default",
  "Mouse Reporting" : true,
  "Screen" : -1,
  "Selection Color" : {
    "Green Component" : 0.20392157137393951,
    "Red Component" : 0.18431372940540314,
    "Blue Component" : 0.25098040699958801
  },
  "Columns" : 80,
  "Idle Code" : 0,
  "Ansi 13 Color" : {
    "Green Component" : 0.3490196168422699,
    "Red Component" : 0.72549021244049072,
    "Blue Component" : 0.84705883264541626
  },
  "Custom Command" : "No",
  "ASCII Anti Aliased" : true,
  "Non Ascii Font" : "FiraCodeNerdFontComplete-Regular 14",
  "Vertical Spacing" : 1.1000000000000001,
  "Use Bold Font" : true,
  "Option Key Sends" : 0,
  "Selected Text Color" : {
    "Green Component" : 0.63529413938522339,
    "Red Component" : 0.60784316062927246,
    "Blue Component" : 0.69803923368453979
  },
  "Background Color" : {
    "Green Component" : 0.12941177189350128,
    "Red Component" : 0.11764705926179886,
    "Blue Component" : 0.15294118225574493
  },
  "Character Encoding" : 4,
  "Ansi 11 Color" : {
    "Green Component" : 0.5372549295425415,
    "Red Component" : 0.78039216995239258,
    "Blue Component" : 0.30980393290519714
  },
  "Non-ASCII Ligatures" : true,
  "Use Italic Font" : true,
  "Unlimited Scrollback" : true,
  "Keyboard Map" : {
    "0xf700-0x260000" : {
      "Text" : "[1;6A",
      "Action" : 10
    },
    "0x37-0x40000" : {
      "Text" : "0x1f",
      "Action" : 11
    },
    "0x32-0x40000" : {
      "Text" : "0x00",
      "Action" : 11
    },
    "0xf709-0x20000" : {
      "Text" : "[17;2~",
      "Action" : 10
    },
    "0xf70c-0x20000" : {
      "Text" : "[20;2~",
      "Action" : 10
    },
    "0xf729-0x20000" : {
      "Text" : "[1;2H",
      "Action" : 10
    },
    "0xf72b-0x40000" : {
      "Text" : "[1;5F",
      "Action" : 10
    },
    "0xf705-0x20000" : {
      "Text" : "[1;2Q",
      "Action" : 10
    },
    "0xf703-0x260000" : {
      "Text" : "[1;6C",
      "Action" : 10
    },
    "0xf700-0x220000" : {
      "Text" : "[1;2A",
      "Action" : 10
    },
    "0xf703-0x300000" : {
      "Action" : 11,
      "Text" : "0x05"
    },
    "0x38-0x40000" : {
      "Text" : "0x7f",
      "Action" : 11
    },
    "0x33-0x40000" : {
      "Text" : "0x1b",
      "Action" : 11
    },
    "0xf703-0x220000" : {
      "Text" : "[1;2C",
      "Action" : 10
    },
    "0xf701-0x240000" : {
      "Text" : "[1;5B",
      "Action" : 10
    },
    "0xf70d-0x20000" : {
      "Text" : "[21;2~",
      "Action" : 10
    },
    "0xf702-0x260000" : {
      "Text" : "[1;6D",
      "Action" : 10
    },
    "0xf729-0x40000" : {
      "Text" : "[1;5H",
      "Action" : 10
    },
    "0xf702-0x300000" : {
      "Action" : 11,
      "Text" : "0x01"
    },
    "0xf706-0x20000" : {
      "Text" : "[1;2R",
      "Action" : 10
    },
    "0x34-0x40000" : {
      "Text" : "0x1c",
      "Action" : 11
    },
    "0x2d-0x40000" : {
      "Text" : "0x1f",
      "Action" : 11
    },
    "0xf70e-0x20000" : {
      "Text" : "[23;2~",
      "Action" : 10
    },
    "0xf702-0x220000" : {
      "Text" : "[1;2D",
      "Action" : 10
    },
    "0xf703-0x280000" : {
      "Action" : 10,
      "Text" : "f"
    },
    "0xf707-0x20000" : {
      "Text" : "[1;2S",
      "Action" : 10
    },
    "0xf700-0x240000" : {
      "Text" : "[1;5A",
      "Action" : 10
    },
    "0xf70a-0x20000" : {
      "Text" : "[18;2~",
      "Action" : 10
    },
    "0x35-0x40000" : {
      "Text" : "0x1d",
      "Action" : 11
    },
    "0xf70f-0x20000" : {
      "Text" : "[24;2~",
      "Action" : 10
    },
    "0xf703-0x240000" : {
      "Text" : "[1;5C",
      "Action" : 10
    },
    "0xf701-0x260000" : {
      "Text" : "[1;6B",
      "Action" : 10
    },
    "0xf702-0x280000" : {
      "Action" : 10,
      "Text" : "b"
    },
    "0xf72b-0x20000" : {
      "Text" : "[1;2F",
      "Action" : 10
    },
    "0x36-0x40000" : {
      "Text" : "0x1e",
      "Action" : 11
    },
    "0xf708-0x20000" : {
      "Text" : "[15;2~",
      "Action" : 10
    },
    "0xf70b-0x20000" : {
      "Text" : "[19;2~",
      "Action" : 10
    },
    "0xf701-0x220000" : {
      "Text" : "[1;2B",
      "Action" : 10
    },
    "0xf702-0x240000" : {
      "Text" : "[1;5D",
      "Action" : 10
    },
    "0xf704-0x20000" : {
      "Text" : "[1;2P",
      "Action" : 10
    }
  },
  "Window Type" : 1,
  "Cursor Boost" : 0,
  "Cursor Type" : 1,
  "Background Image Location" : "",
  "Blur" : false,
  "Badge Color" : {
    "Red Component" : 1,
    "Color Space" : "sRGB",
    "Blue Component" : 0,
    "Alpha Component" : 0.5,
    "Green Component" : 0.1491314172744751
  },
  "Scrollback Lines" : 0,
  "Send Code When Idle" : false,
  "Close Sessions On End" : true,
  "Terminal Type" : "xterm-256color",
  "Visual Bell" : true,
  "Flashing Bell" : false,
  "Status Bar Layout" : {
    "components" : [

    ],
    "advanced configuration" : {
      "font" : ".AppleSystemUIFont 12",
      "algorithm" : 0
    }
  },
  "Silence Bell" : true,
  "Ansi 14 Color" : {
    "Green Component" : 0.65882354974746704,
    "Red Component" : 0.26666668057441711,
    "Blue Component" : 0.7137255072593689
  },
  "ASCII Ligatures" : true,
  "Name" : "dark",
  "Cursor Text Color" : {
    "Green Component" : 1,
    "Red Component" : 1,
    "Blue Component" : 1
  },
  "Shortcut" : "",
  "Cursor Color" : {
    "Green Component" : 0.43137255311012268,
    "Red Component" : 0.24705882370471954,
    "Blue Component" : 1
  },
  "Ansi 0 Color" : {
    "Green Component" : 0.12941177189350128,
    "Red Component" : 0.11764705926179886,
    "Blue Component" : 0.15294118225574493
  },
  "Guid" : "BFD85D62-BA3C-40C0-BE7D-C01009DA806D",
  "Ansi 2 Color" : {
    "Green Component" : 0.73333334922790527,
    "Red Component" : 0.52549022436141968,
    "Blue Component" : 0.38431373238563538
  },
  "Ansi 3 Color" : {
    "Green Component" : 0.5372549295425415,
    "Red Component" : 0.78039216995239258,
    "Blue Component" : 0.30980393290519714
  },
  "Ansi 4 Color" : {
    "Green Component" : 0.61176472902297974,
    "Red Component" : 0.30196079611778259,
    "Blue Component" : 0.93333333730697632
  },
  "Ansi 1 Color" : {
    "Green Component" : 0.32549020648002625,
    "Red Component" : 0.85098040103912354,
    "Blue Component" : 0.37647059559822083
  },
  "Ansi 6 Color" : {
    "Green Component" : 0.65882354974746704,
    "Red Component" : 0.26666668057441711,
    "Blue Component" : 0.7137255072593689
  },
  "Horizontal Spacing" : 1,
  "Normal Font" : "FiraCodeNerdFontComplete-Regular 14",
  "Link Color" : {
    "Red Component" : 0,
    "Color Space" : "sRGB",
    "Blue Component" : 0.73423302173614502,
    "Alpha Component" : 1,
    "Green Component" : 0.35916060209274292
  },
  "Custom Directory" : "Recycle",
  "Right Option Key Sends" : 0
},
{
  "Right Option Key Sends" : 0,
  "Tags" : [

  ],
  "Ansi 12 Color" : {
    "Red Component" : 0.38039215686299999,
    "Color Space" : "Calibrated",
    "Blue Component" : 0.93725490196100003,
    "Alpha Component" : 1,
    "Green Component" : 0.68627450980399995
  },
  "Use Non-ASCII Font" : true,
  "Ansi 7 Color" : {
    "Red Component" : 0.98039215686299996,
    "Color Space" : "Calibrated",
    "Blue Component" : 0.98039215686299996,
    "Alpha Component" : 1,
    "Green Component" : 0.98039215686299996
  },
  "Bold Color" : {
    "Red Component" : 0.67058825492858887,
    "Color Space" : "Calibrated",
    "Blue Component" : 0.74901962280273438,
    "Alpha Component" : 1,
    "Green Component" : 0.69803923368453979
  },
  "Ansi 8 Color" : {
    "Red Component" : 0.309803921569,
    "Color Space" : "Calibrated",
    "Blue Component" : 0.36862745097999999,
    "Alpha Component" : 1,
    "Green Component" : 0.32156862745100001
  },
  "Ansi 9 Color" : {
    "Red Component" : 0.87843137254899994,
    "Color Space" : "Calibrated",
    "Blue Component" : 0.458823529412,
    "Alpha Component" : 1,
    "Green Component" : 0.42352941176499997
  },
  "Transparency" : 0,
  "Rows" : 25,
  "Default Bookmark" : "No",
  "Ansi 5 Color" : {
    "Red Component" : 0.65098039215699999,
    "Color Space" : "Calibrated",
    "Blue Component" : 0.64313725490200002,
    "Alpha Component" : 1,
    "Green Component" : 0.149019607843
  },
  "Cursor Guide Color" : {
    "Red Component" : 0.94117647058800002,
    "Color Space" : "Calibrated",
    "Blue Component" : 0.94117647058800002,
    "Alpha Component" : 0.25,
    "Green Component" : 0.94117647058800002
  },
  "Non-ASCII Anti Aliased" : true,
  "Use Bright Bold" : true,
  "Show Mark Indicators" : false,
  "Ansi 10 Color" : {
    "Red Component" : 0.59607843137299998,
    "Color Space" : "Calibrated",
    "Blue Component" : 0.47450980392199998,
    "Alpha Component" : 1,
    "Green Component" : 0.76470588235299997
  },
  "Icon" : 0,
  "Ambiguous Double Width" : false,
  "Jobs to Ignore" : [
    "rlogin",
    "ssh",
    "slogin",
    "telnet"
  ],
  "Show Status Bar" : false,
  "Ansi 15 Color" : {
    "Red Component" : 1,
    "Color Space" : "Calibrated",
    "Blue Component" : 1,
    "Alpha Component" : 1,
    "Green Component" : 1
  },
  "Foreground Color" : {
    "Red Component" : 0.21960784313699999,
    "Color Space" : "Calibrated",
    "Blue Component" : 0.25882352941199999,
    "Alpha Component" : 1,
    "Green Component" : 0.22745098039200001
  },
  "Bound Hosts" : [

  ],
  "Working Directory" : "\/Users\/ahmadawais",
  "Blinking Cursor" : false,
  "Disable Window Resizing" : true,
  "Sync Title" : false,
  "Prompt Before Closing 2" : false,
  "BM Growl" : true,
  "Command" : "",
  "Description" : "Default",
  "Mouse Reporting" : true,
  "Screen" : -1,
  "Selection Color" : {
    "Red Component" : 0.74901960784300003,
    "Color Space" : "Calibrated",
    "Blue Component" : 1,
    "Alpha Component" : 1,
    "Green Component" : 0.80784313725500001
  },
  "Columns" : 80,
  "Idle Code" : 0,
  "Ansi 13 Color" : {
    "Red Component" : 0.77647058823500004,
    "Color Space" : "Calibrated",
    "Blue Component" : 0.86666666666699999,
    "Alpha Component" : 1,
    "Green Component" : 0.47058823529400001
  },
  "Custom Command" : "No",
  "ASCII Anti Aliased" : true,
  "Non Ascii Font" : "FiraCodeNerdFontComplete-Regular 14",
  "Vertical Spacing" : 1.1000000000000001,
  "Use Bold Font" : true,
  "Option Key Sends" : 0,
  "Selected Text Color" : {
    "Red Component" : 0.21960784313699999,
    "Color Space" : "Calibrated",
    "Blue Component" : 0.25882352941199999,
    "Alpha Component" : 1,
    "Green Component" : 0.22745098039200001
  },
  "Background Color" : {
    "Red Component" : 0.98039215686299996,
    "Color Space" : "Calibrated",
    "Blue Component" : 0.98039215686299996,
    "Alpha Component" : 1,
    "Green Component" : 0.98039215686299996
  },
  "Character Encoding" : 4,
  "Ansi 11 Color" : {
    "Red Component" : 0.89803921568599998,
    "Color Space" : "Calibrated",
    "Blue Component" : 0.48235294117600003,
    "Alpha Component" : 1,
    "Green Component" : 0.75294117647100001
  },
  "Non-ASCII Ligatures" : true,
  "Use Italic Font" : true,
  "Unlimited Scrollback" : true,
  "Keyboard Map" : {
    "0xf700-0x260000" : {
      "Text" : "[1;6A",
      "Action" : 10
    },
    "0x37-0x40000" : {
      "Text" : "0x1f",
      "Action" : 11
    },
    "0x32-0x40000" : {
      "Text" : "0x00",
      "Action" : 11
    },
    "0xf709-0x20000" : {
      "Text" : "[17;2~",
      "Action" : 10
    },
    "0xf70c-0x20000" : {
      "Text" : "[20;2~",
      "Action" : 10
    },
    "0xf729-0x20000" : {
      "Text" : "[1;2H",
      "Action" : 10
    },
    "0xf72b-0x40000" : {
      "Text" : "[1;5F",
      "Action" : 10
    },
    "0xf705-0x20000" : {
      "Text" : "[1;2Q",
      "Action" : 10
    },
    "0xf703-0x260000" : {
      "Text" : "[1;6C",
      "Action" : 10
    },
    "0xf700-0x220000" : {
      "Text" : "[1;2A",
      "Action" : 10
    },
    "0xf703-0x300000" : {
      "Action" : 11,
      "Text" : "0x05"
    },
    "0x38-0x40000" : {
      "Text" : "0x7f",
      "Action" : 11
    },
    "0x33-0x40000" : {
      "Text" : "0x1b",
      "Action" : 11
    },
    "0xf703-0x220000" : {
      "Text" : "[1;2C",
      "Action" : 10
    },
    "0xf701-0x240000" : {
      "Text" : "[1;5B",
      "Action" : 10
    },
    "0xf70d-0x20000" : {
      "Text" : "[21;2~",
      "Action" : 10
    },
    "0xf702-0x260000" : {
      "Text" : "[1;6D",
      "Action" : 10
    },
    "0xf729-0x40000" : {
      "Text" : "[1;5H",
      "Action" : 10
    },
    "0xf702-0x300000" : {
      "Action" : 11,
      "Text" : "0x01"
    },
    "0xf706-0x20000" : {
      "Text" : "[1;2R",
      "Action" : 10
    },
    "0x34-0x40000" : {
      "Text" : "0x1c",
      "Action" : 11
    },
    "0x2d-0x40000" : {
      "Text" : "0x1f",
      "Action" : 11
    },
    "0xf70e-0x20000" : {
      "Text" : "[23;2~",
      "Action" : 10
    },
    "0xf702-0x220000" : {
      "Text" : "[1;2D",
      "Action" : 10
    },
    "0xf703-0x280000" : {
      "Action" : 10,
      "Text" : "f"
    },
    "0xf707-0x20000" : {
      "Text" : "[1;2S",
      "Action" : 10
    },
    "0xf700-0x240000" : {
      "Text" : "[1;5A",
      "Action" : 10
    },
    "0xf70a-0x20000" : {
      "Text" : "[18;2~",
      "Action" : 10
    },
    "0x35-0x40000" : {
      "Text" : "0x1d",
      "Action" : 11
    },
    "0xf70f-0x20000" : {
      "Text" : "[24;2~",
      "Action" : 10
    },
    "0xf703-0x240000" : {
      "Text" : "[1;5C",
      "Action" : 10
    },
    "0xf701-0x260000" : {
      "Text" : "[1;6B",
      "Action" : 10
    },
    "0xf702-0x280000" : {
      "Action" : 10,
      "Text" : "b"
    },
    "0xf72b-0x20000" : {
      "Text" : "[1;2F",
      "Action" : 10
    },
    "0x36-0x40000" : {
      "Text" : "0x1e",
      "Action" : 11
    },
    "0xf708-0x20000" : {
      "Text" : "[15;2~",
      "Action" : 10
    },
    "0xf70b-0x20000" : {
      "Text" : "[19;2~",
      "Action" : 10
    },
    "0xf701-0x220000" : {
      "Text" : "[1;2B",
      "Action" : 10
    },
    "0xf702-0x240000" : {
      "Text" : "[1;5D",
      "Action" : 10
    },
    "0xf704-0x20000" : {
      "Text" : "[1;2P",
      "Action" : 10
    }
  },
  "Window Type" : 1,
  "Cursor Boost" : 0,
  "Cursor Type" : 1,
  "Background Image Location" : "",
  "Blur" : false,
  "Badge Color" : {
    "Red Component" : 1,
    "Color Space" : "Calibrated",
    "Blue Component" : 0,
    "Alpha Component" : 0.5,
    "Green Component" : 0
  },
  "Scrollback Lines" : 0,
  "Send Code When Idle" : false,
  "Close Sessions On End" : true,
  "Terminal Type" : "xterm-256color",
  "Visual Bell" : true,
  "Flashing Bell" : false,
  "Status Bar Layout" : {
    "components" : [

    ],
    "advanced configuration" : {
      "font" : ".AppleSystemUIFont 12",
      "algorithm" : 0
    }
  },
  "Silence Bell" : true,
  "Ansi 14 Color" : {
    "Red Component" : 0.337254901961,
    "Color Space" : "Calibrated",
    "Blue Component" : 0.76078431372499999,
    "Alpha Component" : 1,
    "Green Component" : 0.71372549019599996
  },
  "ASCII Ligatures" : true,
  "Name" : "light",
  "Cursor Text Color" : {
    "Red Component" : 0.21960784313699999,
    "Color Space" : "Calibrated",
    "Blue Component" : 0.25882352941199999,
    "Alpha Component" : 1,
    "Green Component" : 0.22745098039200001
  },
  "Shortcut" : "",
  "Cursor Color" : {
    "Red Component" : 0.74901960784300003,
    "Color Space" : "Calibrated",
    "Blue Component" : 1,
    "Alpha Component" : 1,
    "Green Component" : 0.80784313725500001
  },
  "Ansi 0 Color" : {
    "Red Component" : 0.21960784313699999,
    "Color Space" : "Calibrated",
    "Blue Component" : 0.25882352941199999,
    "Alpha Component" : 1,
    "Green Component" : 0.22745098039200001
  },
  "Guid" : "4714E11F-3E09-409B-A869-897AFE02EAA3",
  "Ansi 2 Color" : {
    "Red Component" : 0.31372549019599999,
    "Color Space" : "Calibrated",
    "Blue Component" : 0.309803921569,
    "Alpha Component" : 1,
    "Green Component" : 0.63137254901999995
  },
  "Ansi 3 Color" : {
    "Red Component" : 0.756862745098,
    "Color Space" : "Calibrated",
    "Blue Component" : 0.0039215686274500002,
    "Alpha Component" : 1,
    "Green Component" : 0.51764705882399997
  },
  "Ansi 4 Color" : {
    "Red Component" : 0.0039215686274500002,
    "Color Space" : "Calibrated",
    "Blue Component" : 0.73725490196099996,
    "Alpha Component" : 1,
    "Green Component" : 0.51764705882399997
  },
  "Ansi 1 Color" : {
    "Red Component" : 0.89411764705899999,
    "Color Space" : "Calibrated",
    "Blue Component" : 0.28627450980399999,
    "Alpha Component" : 1,
    "Green Component" : 0.337254901961
  },
  "Has Hotkey" : false,
  "Ansi 6 Color" : {
    "Red Component" : 0.035294117647099998,
    "Color Space" : "Calibrated",
    "Blue Component" : 0.701960784314,
    "Alpha Component" : 1,
    "Green Component" : 0.59215686274500001
  },
  "Normal Font" : "FiraCodeNerdFontComplete-Regular 14",
  "Horizontal Spacing" : 1,
  "Link Color" : {
    "Red Component" : 0.0039215686274500002,
    "Color Space" : "Calibrated",
    "Blue Component" : 0.73725490196099996,
    "Alpha Component" : 1,
    "Green Component" : 0.51764705882399997
  },
  "Custom Directory" : "Recycle"
}
]
}
